{
    "KPlugin": {
        "Authors": [
            {
                "Email": "trueg@k3b.org",
                "Name": "Sebastian Trueg",
                "Name[bg]": "Sebastian Trueg",
                "Name[ca@valencia]": "Sebastian Trueg",
                "Name[ca]": "Sebastian Trueg",
                "Name[cs]": "Sebastian Trueg",
                "Name[da]": "Sebastian Trueg",
                "Name[de]": "Sebastian Trueg",
                "Name[el]": "Sebastian Trueg",
                "Name[en_GB]": "Sebastian Trueg",
                "Name[es]": "Sebastian Trueg",
                "Name[eu]": "Sebastian Trueg",
                "Name[fi]": "Sebastian Trueg",
                "Name[fr]": "Sebastian Trueg",
                "Name[hu]": "Sebastian Trueg",
                "Name[ia]": "Sebastian Trueg",
                "Name[id]": "Sebastian Trueg",
                "Name[is]": "Sebastian Trueg",
                "Name[it]": "Sebastian Trueg",
                "Name[ka]": "Sebastian Trueg",
                "Name[ko]": "Sebastian Trueg",
                "Name[nl]": "Sebastian Trueg",
                "Name[pl]": "Sebastian Trueg",
                "Name[pt]": "Sebastian Trueg",
                "Name[pt_BR]": "Sebastian Trueg",
                "Name[ru]": "Sebastian Trueg",
                "Name[sk]": "Sebastian Trueg",
                "Name[sl]": "Sebastian Trueg",
                "Name[sv]": "Sebastian Trueg",
                "Name[tr]": "Sebastian Trueg",
                "Name[uk]": "Sebastian Trueg",
                "Name[x-test]": "xxSebastian Truegxx",
                "Name[zh_CN]": "Sebastian Trueg",
                "Name[zh_TW]": "Sebastian Trueg"
            }
        ],
        "Category": "AudioDecoder",
        "Description": "Decoding module to decode WMA files",
        "Description[ar]": "وحدة فكّ ترميز لفكّ ترميز ملفّات WMA",
        "Description[bg]": "Модул за декодиране на файлове WMA",
        "Description[bs]": "Modul dekodiranja za dekodiranje WMA datoteke",
        "Description[ca@valencia]": "Mòdul de descodificació per a descodificar fitxers WMA",
        "Description[ca]": "Mòdul de descodificació per a descodificar fitxers WMA",
        "Description[cs]": "Modul pro dekódování souborů WMA",
        "Description[da]": "Dekodermodul til dekodning af WMA-filer",
        "Description[de]": "Dekodierungsmodul für WMA-Dateien",
        "Description[el]": "Άρθρωμα αποκωδικοποίησης αρχείων WMA",
        "Description[en_GB]": "Decoding module to decode WMA files",
        "Description[es]": "Descodificando módulo para descodificar archivos WMA",
        "Description[et]": "WMA-failide dekodeerimise moodul",
        "Description[eu]": "WMA fitxategiak deskodetzeko modulua",
        "Description[fi]": "WMA-tiedostojen purkumoduuli",
        "Description[fr]": "Module de décodage pour des fichiers au format « WMA »",
        "Description[gl]": "Módulo de descodificación para descodificar ficheiros WMA",
        "Description[hu]": "Dekódolómodul WMA-fájlok dekódolásához",
        "Description[ia]": "Modulo decifrante per decifrar files WMA",
        "Description[id]": "Modul decoding untuk mendekode file-file WMA",
        "Description[it]": "Decodifica modulare per i file WMA",
        "Description[ka]": "დეკოდერის მოდული WMA ფაილების დეკოდირებისთვის",
        "Description[ko]": "WMA 파일 디코딩 모듈",
        "Description[nl]": "Module voor het decoderen van WMA-bestanden",
        "Description[nn]": "Modul for dekoding av WMA-filer",
        "Description[pl]": "Moduł dekodujący pliki WMA",
        "Description[pt]": "Módulo de descodificação de ficheiros WMA",
        "Description[pt_BR]": "Módulo de decodificação de arquivos WMA",
        "Description[ru]": "Модуль декодирования файлов WMA",
        "Description[sk]": "Modul pre dekódovanie súborov WMA",
        "Description[sl]": "Dekodirni modul za dekodiranje datotek WMA",
        "Description[sr@ijekavian]": "Модул за декодирање ВМА фајлова",
        "Description[sr@ijekavianlatin]": "Modul za dekodiranje WMA fajlova",
        "Description[sr@latin]": "Modul za dekodiranje WMA fajlova",
        "Description[sr]": "Модул за декодирање ВМА фајлова",
        "Description[sv]": "Avkodningsmodul för att avkoda WMA-filer",
        "Description[tr]": "WMA dosyalarının kodlarını çözmek için çözücü modül",
        "Description[uk]": "Модуль для декодування файлів WMA",
        "Description[x-test]": "xxDecoding module to decode WMA filesxx",
        "Description[zh_CN]": "用于解码 WMA 文件的解码模块",
        "Description[zh_TW]": "解碼 WMA 檔案格式的模組",
        "EnabledByDefault": true,
        "Icon": "preferences-plugin",
        "Id": "k3bffmpegdecoder",
        "License": "GPL",
        "Name": "K3b FFMpeg Decoder",
        "Name[bg]": "Декодер K3b FFMpeg",
        "Name[bs]": "K3b FFMpeg Dekoder",
        "Name[ca@valencia]": "Descodificador FFmpeg de K3b",
        "Name[ca]": "Descodificador FFMpeg del K3b",
        "Name[cs]": "FFMpeg dekodér K3b",
        "Name[csb]": "Dekòder FFMpeg dlô K3b",
        "Name[da]": "K3b FFMpeg-dekoder",
        "Name[de]": "FFMpeg-Dekodierer",
        "Name[el]": "Αποκωδικοποιητής FFMpeg του K3b",
        "Name[en_GB]": "K3b FFMpeg Decoder",
        "Name[es]": "Decodificador FFMpeg de K3b",
        "Name[et]": "K3b FFMpeg dekodeerija",
        "Name[eu]": "K3b FFMpeg deskodetzailea",
        "Name[fi]": "K3b:n FFMpeg-purkaja",
        "Name[fr]": "Décodeur « FFMpeg » pour K3b",
        "Name[ga]": "Díchódóir FFMpeg K3b",
        "Name[gl]": "Descodificador FFMpeg para o K3b",
        "Name[he]": "מפענח FFMpeg של K3b",
        "Name[hne]": "के3बी एफएफएमपीईजी डिकोडर",
        "Name[hr]": "K3b-ov FFMpeg dekoder",
        "Name[hu]": "FFMpeg-dekódoló a K3b-hez",
        "Name[ia]": "Decifrator FFMpeg de K3b",
        "Name[id]": "Dekoder FFMpeg K3b",
        "Name[is]": "K3b FFMpeg afkóðari",
        "Name[it]": "Decodificatore FFMpeg di K3b",
        "Name[ja]": "K3b FFMpeg デコーダ",
        "Name[ka]": "K3b FFMpeg დეკოდერი",
        "Name[kk]": "K3b FFMpeg декодері",
        "Name[km]": "ឌិកូឌ័រ FFMpeg របស់​  K3b",
        "Name[ko]": "K3b FFMpeg 디코더",
        "Name[lt]": "K3b FFMpeg dekoderis",
        "Name[lv]": "K3b FFMpeg dekoderis",
        "Name[mr]": "के3बी FFMpeg डीकोडर",
        "Name[nb]": "K3b FFMpeg dekoder",
        "Name[nds]": "FFMpeg-Dekoderer för K3b",
        "Name[nl]": "K3b FFMpeg-decoder",
        "Name[nn]": "FFMpeg-dekodar for K3b",
        "Name[pa]": "K3b FFMpeg ਡੀਕੋਡਰ",
        "Name[pl]": "Dekoder FFMpeg dla K3b",
        "Name[pt]": "Descodificador de FFMpeg do K3b",
        "Name[pt_BR]": "Decodificador FFMpeg do K3b",
        "Name[ro]": "Decodor K3b FFMpeg",
        "Name[ru]": "Декодер FFMpeg",
        "Name[sk]": "FFMpeg dekodér pre K3b",
        "Name[sl]": "K3b-jev dekodirnik FFMpeg",
        "Name[sq]": "K3b FFMpeg Dekoder",
        "Name[sr@ijekavian]": "ФФмпег декодер за К3б",
        "Name[sr@ijekavianlatin]": "FFmpeg dekoder za K3b",
        "Name[sr@latin]": "FFmpeg dekoder za K3b",
        "Name[sr]": "ФФмпег декодер за К3б",
        "Name[sv]": "K3b FFMpeg-avkodare",
        "Name[th]": "K3b - ตัวถอดรหัส FFMpeg",
        "Name[tr]": "K3b FFMpeg Çözücüsü",
        "Name[uk]": "K3b декодувальник FFMpeg",
        "Name[x-test]": "xxK3b FFMpeg Decoderxx",
        "Name[zh_CN]": "K3b FFMpeg 解码器",
        "Name[zh_TW]": "K3b FFMpeg 解碼器",
        "Version": "4.0"
    }
}
